\relax 
\select@language{english}
\@writefile{toc}{\select@language{english}}
\@writefile{lof}{\select@language{english}}
\@writefile{lot}{\select@language{english}}
\@writefile{lof}{\contentsline {figure}{\numberline {1}{\ignorespaces Growth Paths of Capital Per Effective Labor Unit }}{3}}
\newlabel{fig1}{{1}{3}}
\@writefile{lof}{\contentsline {figure}{\numberline {2}{\ignorespaces Growth Paths of Per-Capita Wage Rates }}{3}}
\newlabel{fig2}{{2}{3}}
